<svg width="23px" height="28px" viewBox="0 0 23 28" version="1.1" xmlns="http://www.w3.org/2000/svg" xmlns:xlink="http://www.w3.org/1999/xlink">

<title>F665DD47-90BD-42BC-B768-6A79DA966F5DDS_BEN_WEB_1366_</title>
<desc>Created with sketchtool.</desc>
<g id="00-INTERACTION" stroke="none" stroke-width="1" fill="none" fill-rule="evenodd">
<g id="00_Interaction_02_FilterShop" transform="translate(-1307.000000, -42.000000)" fill="#000000">
<g id="001-HEADER">
<g id="Top">
<g id="Nav/Header/Desktop">
<g id="Group-2">
<g id="Info-Right" transform="translate(959.000000, 11.000000)">
<g id="Icon-/-ShoppingBag" transform="translate(343.000000, 29.000000)">
<path d="M21.4444352,9.3333295 L21.4444352,7.66666667 C21.4444352,4.90524163 19.2058602,2.66666667 16.4444381,2.66666667 C13.6830159,2.66666667 11.4444409,4.90524163 11.4444409,7.66666667 L11.4444409,9.3333295 L5.33333333,9.3333295 L6.1999995,24.6277652 C6.35607517,27.273575 8.54959137,29.3379175 11.1999966,29.3333257 L21.6999906,29.3333257 C24.3503959,29.3379175 26.5439121,27.273575 26.6999877,24.6277652 L27.5555428,9.3333295 L21.4444352,9.3333295 Z M12.5555514,7.66666379 C12.5555514,5.51889103 14.2966653,3.77777722 16.4444381,3.77777722 C18.5922108,3.77777722 20.3333247,5.51889103 20.3333247,7.66666379 L20.3333247,9.3333295 L12.5555514,9.3333295 L12.5555514,7.66666379 Z M25.5777662,24.5610985 C25.457002,26.6194377 23.7507552,28.2257472 21.6888795,28.2222134 L11.1888855,28.2222134 C9.12700982,28.2257472 7.42076302,26.6194377 7.29999887,24.5610985 L6.47777712,10.44444 L11.4444409,10.44444 L11.4444409,15.44444 L12.5555514,15.44444 L12.5555514,10.44444 L20.3333247,10.44444 L20.3333247,15.44444 L21.4444352,15.44444 L21.4444352,10.44444 L26.411099,10.44444 L25.5777662,24.5610985 Z" id="Shape"></path>
</g>
</g>
</g>
</g>
</g>
</g>
</g>
</g>
</svg>